\contentsline {section}{\numberline {1}My section}{3}{section.1}%
\contentsline {subsection}{\numberline {1.1}Sub section}{3}{subsection.1.1}%
\contentsline {section}{\numberline {2}Heading on level\xspace 1 (section)}{3}{section.2}%
\contentsline {subsection}{\numberline {2.1}Heading on level\xspace 2 (subsection)}{3}{subsection.2.1}%
\contentsline {subsubsection}{\numberline {2.1.1}Heading on level\xspace 3 (subsubsection)}{4}{subsubsection.2.1.1}%
\contentsline {paragraph}{Heading on level\xspace 4 (paragraph)}{4}{section*.2}%
\contentsline {section}{\numberline {3}Lists}{4}{section.3}%
\contentsline {subsection}{\numberline {3.1}Example for list\xspace (itemize)}{4}{subsection.3.1}%
\contentsline {subsubsection}{\numberline {3.1.1}Example for list\xspace (4*itemize)}{5}{subsubsection.3.1.1}%
\contentsline {subsection}{\numberline {3.2}Example for list\xspace (enumerate)}{5}{subsection.3.2}%
\contentsline {subsubsection}{\numberline {3.2.1}Example for list\xspace (4*enumerate)}{5}{subsubsection.3.2.1}%
\contentsline {subsection}{\numberline {3.3}Example for list\xspace (description)}{6}{subsection.3.3}%
\contentsline {subsubsection}{\numberline {3.3.1}Example for list\xspace (4*description)}{6}{subsubsection.3.3.1}%
