\boolfalse {citerequest}\boolfalse {citetracker}\boolfalse {pagetracker}\boolfalse {backtracker}\relax 
\defcounter {refsection}{0}\relax 
\contentsline {section}{\numberline {1}Citing}{3}{section.1}%
\defcounter {refsection}{0}\relax 
\contentsline {section}{References}{3}{section*.2}%
