\boolfalse {citerequest}\boolfalse {citetracker}\boolfalse {pagetracker}\boolfalse {backtracker}\relax 
\defcounter {refsection}{0}\relax 
\contentsline {table}{\numberline {1}{\ignorespaces Example of basic table}}{1}{table.1}%
\defcounter {refsection}{0}\relax 
\contentsline {table}{\numberline {2}{\ignorespaces Slightly more complex table}}{1}{table.2}%
