# Fdb version 3
["biber main"] 1626367250 "main.bcf" "main.bbl" "main" 1626367796
  "main.bcf" 1626367795 107295 14b2d15186d0e1327df3f5261a802625 "pdflatex"
  "sample.bib" 1626360074 1093 bd10bf842e65ae80abca78eaca7f187f ""
  (generated)
  "main.bbl"
  "main.blg"
["pdflatex"] 1626367792 "d:/Git Projects/latex-examples/5_full-example/main.tex" "d:/Git Projects/latex-examples/5_full-example/main.pdf" "main" 1626367796
  "c:/texlive/2020/texmf-dist/fonts/map/fontname/texfonts.map" 1602850234 3524 cb3e574dea2d1052e39280babc910dc8 ""
  "c:/texlive/2020/texmf-dist/fonts/tfm/public/amsfonts/cmextra/cmex7.tfm" 1602849030 1004 54797486969f23fa377b128694d548df ""
  "c:/texlive/2020/texmf-dist/fonts/tfm/public/amsfonts/cmextra/cmex8.tfm" 1602849030 988 bdf658c3bfc2d96d3c8b02cfc1c94c20 ""
  "c:/texlive/2020/texmf-dist/fonts/tfm/public/amsfonts/symbols/msam10.tfm" 1602849030 916 f87d7c45f9c908e672703b83b72241a3 ""
  "c:/texlive/2020/texmf-dist/fonts/tfm/public/amsfonts/symbols/msam7.tfm" 1602849030 928 2dc8d444221b7a635bb58038579b861a ""
  "c:/texlive/2020/texmf-dist/fonts/tfm/public/amsfonts/symbols/msbm10.tfm" 1602849030 908 2921f8a10601f252058503cc6570e581 ""
  "c:/texlive/2020/texmf-dist/fonts/tfm/public/amsfonts/symbols/msbm7.tfm" 1602849030 940 228d6584342e91276bf566bcf9716b83 ""
  "c:/texlive/2020/texmf-dist/fonts/tfm/public/cm/cmbx10.tfm" 1602849546 1328 c834bbb027764024c09d3d2bf908b5f0 ""
  "c:/texlive/2020/texmf-dist/fonts/tfm/public/cm/cmbx12.tfm" 1602849546 1324 c910af8c371558dc20f2d7822f66fe64 ""
  "c:/texlive/2020/texmf-dist/fonts/tfm/public/cm/cmbx6.tfm" 1602849546 1344 8a0be4fe4d376203000810ad4dc81558 ""
  "c:/texlive/2020/texmf-dist/fonts/tfm/public/cm/cmbx8.tfm" 1602849546 1332 1fde11373e221473104d6cc5993f046e ""
  "c:/texlive/2020/texmf-dist/fonts/tfm/public/cm/cmcsc10.tfm" 1602849546 1300 63a6111ee6274895728663cf4b4e7e81 ""
  "c:/texlive/2020/texmf-dist/fonts/tfm/public/cm/cmex10.tfm" 1602849546 992 662f679a0b3d2d53c1b94050fdaa3f50 ""
  "c:/texlive/2020/texmf-dist/fonts/tfm/public/cm/cmmi12.tfm" 1602849546 1524 4414a8315f39513458b80dfc63bff03a ""
  "c:/texlive/2020/texmf-dist/fonts/tfm/public/cm/cmmi6.tfm" 1602849546 1512 f21f83efb36853c0b70002322c1ab3ad ""
  "c:/texlive/2020/texmf-dist/fonts/tfm/public/cm/cmmi8.tfm" 1602849546 1520 eccf95517727cb11801f4f1aee3a21b4 ""
  "c:/texlive/2020/texmf-dist/fonts/tfm/public/cm/cmr10.tfm" 1602849546 1296 45809c5a464d5f32c8f98ba97c1bb47f ""
  "c:/texlive/2020/texmf-dist/fonts/tfm/public/cm/cmr12.tfm" 1602849546 1288 655e228510b4c2a1abe905c368440826 ""
  "c:/texlive/2020/texmf-dist/fonts/tfm/public/cm/cmr17.tfm" 1602849546 1292 296a67155bdbfc32aa9c636f21e91433 ""
  "c:/texlive/2020/texmf-dist/fonts/tfm/public/cm/cmr6.tfm" 1602849546 1300 b62933e007d01cfd073f79b963c01526 ""
  "c:/texlive/2020/texmf-dist/fonts/tfm/public/cm/cmr8.tfm" 1602849546 1292 21c1c5bfeaebccffdb478fd231a0997d ""
  "c:/texlive/2020/texmf-dist/fonts/tfm/public/cm/cmsy10.tfm" 1602849546 1124 6c73e740cf17375f03eec0ee63599741 ""
  "c:/texlive/2020/texmf-dist/fonts/tfm/public/cm/cmsy6.tfm" 1602849546 1116 933a60c408fc0a863a92debe84b2d294 ""
  "c:/texlive/2020/texmf-dist/fonts/tfm/public/cm/cmsy8.tfm" 1602849546 1120 8b7d695260f3cff42e636090a8002094 ""
  "c:/texlive/2020/texmf-dist/fonts/tfm/public/cm/cmti10.tfm" 1602849546 1480 aa8e34af0eb6a2941b776984cf1dfdc4 ""
  "c:/texlive/2020/texmf-dist/fonts/tfm/public/cm/cmti12.tfm" 1602849546 1484 ed72f8f5cf654cda15ecc8e32bfcbee5 ""
  "c:/texlive/2020/texmf-dist/fonts/tfm/public/cm/cmti7.tfm" 1602849546 1492 86331993fe614793f5e7e755835c31c5 ""
  "c:/texlive/2020/texmf-dist/fonts/tfm/public/cm/cmti8.tfm" 1602849546 1504 1747189e0441d1c18f3ea56fafc1c480 ""
  "c:/texlive/2020/texmf-dist/fonts/tfm/public/cm/cmtt10.tfm" 1602849546 768 1321e9409b4137d6fb428ac9dc956269 ""
  "c:/texlive/2020/texmf-dist/fonts/tfm/public/cm/cmtt12.tfm" 1602849546 772 9a936b7f5e2ff0557fce0f62822f0bbf ""
  "c:/texlive/2020/texmf-dist/fonts/type1/public/amsfonts/cm/cmbx10.pfb" 1602849030 34811 78b52f49e893bcba91bd7581cdc144c0 ""
  "c:/texlive/2020/texmf-dist/fonts/type1/public/amsfonts/cm/cmbx12.pfb" 1602849030 32080 340ef9bf63678554ee606688e7b5339d ""
  "c:/texlive/2020/texmf-dist/fonts/type1/public/amsfonts/cm/cmbx8.pfb" 1602849030 32166 b0c356b15f19587482a9217ce1d8fa67 ""
  "c:/texlive/2020/texmf-dist/fonts/type1/public/amsfonts/cm/cmcsc10.pfb" 1602849031 32001 6aeea3afe875097b1eb0da29acd61e28 ""
  "c:/texlive/2020/texmf-dist/fonts/type1/public/amsfonts/cm/cmex10.pfb" 1602849031 30251 6afa5cb1d0204815a708a080681d4674 ""
  "c:/texlive/2020/texmf-dist/fonts/type1/public/amsfonts/cm/cmmi12.pfb" 1602849031 36741 fa121aac0049305630cf160b86157ee4 ""
  "c:/texlive/2020/texmf-dist/fonts/type1/public/amsfonts/cm/cmmi6.pfb" 1602849031 37166 8ab3487cbe3ab49ebce74c29ea2418db ""
  "c:/texlive/2020/texmf-dist/fonts/type1/public/amsfonts/cm/cmmi8.pfb" 1602849031 35469 70d41d2b9ea31d5d813066df7c99281c ""
  "c:/texlive/2020/texmf-dist/fonts/type1/public/amsfonts/cm/cmr10.pfb" 1602849031 35752 024fb6c41858982481f6968b5fc26508 ""
  "c:/texlive/2020/texmf-dist/fonts/type1/public/amsfonts/cm/cmr12.pfb" 1602849031 32722 d7379af29a190c3f453aba36302ff5a9 ""
  "c:/texlive/2020/texmf-dist/fonts/type1/public/amsfonts/cm/cmr17.pfb" 1602849031 32362 179c33bbf43f19adbb3825bb4e36e57a ""
  "c:/texlive/2020/texmf-dist/fonts/type1/public/amsfonts/cm/cmr6.pfb" 1602849031 32734 69e00a6b65cedb993666e42eedb3d48f ""
  "c:/texlive/2020/texmf-dist/fonts/type1/public/amsfonts/cm/cmr8.pfb" 1602849031 32726 0a1aea6fcd6468ee2cf64d891f5c43c8 ""
  "c:/texlive/2020/texmf-dist/fonts/type1/public/amsfonts/cm/cmsy10.pfb" 1602849031 32569 5e5ddc8df908dea60932f3c484a54c0d ""
  "c:/texlive/2020/texmf-dist/fonts/type1/public/amsfonts/cm/cmsy8.pfb" 1602849031 32626 4f5c1b83753b1dd3a97d1b399a005b4b ""
  "c:/texlive/2020/texmf-dist/fonts/type1/public/amsfonts/cm/cmti10.pfb" 1602849031 37944 359e864bd06cde3b1cf57bb20757fb06 ""
  "c:/texlive/2020/texmf-dist/fonts/type1/public/amsfonts/cm/cmti12.pfb" 1602849031 36118 fad905eba93cff5bce1e185fe980a177 ""
  "c:/texlive/2020/texmf-dist/fonts/type1/public/amsfonts/cm/cmtt10.pfb" 1602849031 31099 c85edf1dd5b9e826d67c9c7293b6786c ""
  "c:/texlive/2020/texmf-dist/fonts/type1/public/amsfonts/cm/cmtt12.pfb" 1602849031 24252 1e4e051947e12dfb50fee0b7f4e26e3a ""
  "c:/texlive/2020/texmf-dist/fonts/type1/public/amsfonts/symbols/msam10.pfb" 1602849031 31764 459c573c03a4949a528c2cc7f557e217 ""
  "c:/texlive/2020/texmf-dist/tex/context/base/mkii/supp-pdf.mkii" 1602851226 71627 94eb9990bed73c364d7f53f960cc8c5b ""
  "c:/texlive/2020/texmf-dist/tex/generic/atbegshi/atbegshi.sty" 1602849120 24708 5584a51a7101caf7e6bbf1fc27d8f7b1 ""
  "c:/texlive/2020/texmf-dist/tex/generic/bigintcalc/bigintcalc.sty" 1602849347 40635 c40361e206be584d448876bba8a64a3b ""
  "c:/texlive/2020/texmf-dist/tex/generic/bitset/bitset.sty" 1602849353 33961 6b5c75130e435b2bfdb9f480a09a39f9 ""
  "c:/texlive/2020/texmf-dist/tex/generic/etexcmds/etexcmds.sty" 1602850058 7734 b98cbb34c81f667027c1e3ebdbfce34b ""
  "c:/texlive/2020/texmf-dist/tex/generic/gettitlestring/gettitlestring.sty" 1602850322 8371 9d55b8bd010bc717624922fb3477d92e ""
  "c:/texlive/2020/texmf-dist/tex/generic/iftex/iftex.sty" 1602850552 6501 4011d89d9621e0b0901138815ba5ff29 ""
  "c:/texlive/2020/texmf-dist/tex/generic/infwarerr/infwarerr.sty" 1602850571 8356 7bbb2c2373aa810be568c29e333da8ed ""
  "c:/texlive/2020/texmf-dist/tex/generic/intcalc/intcalc.sty" 1602850582 31769 002a487f55041f8e805cfbf6385ffd97 ""
  "c:/texlive/2020/texmf-dist/tex/generic/kvdefinekeys/kvdefinekeys.sty" 1602850709 5412 d5a2436094cd7be85769db90f29250a6 ""
  "c:/texlive/2020/texmf-dist/tex/generic/kvsetkeys/kvsetkeys.sty" 1602850713 13807 952b0226d4efca026f0e19dd266dcc22 ""
  "c:/texlive/2020/texmf-dist/tex/generic/ltxcmds/ltxcmds.sty" 1602850946 17859 4409f8f50cd365c68e684407e5350b1b ""
  "c:/texlive/2020/texmf-dist/tex/generic/pdfescape/pdfescape.sty" 1602851497 19007 15924f7228aca6c6d184b115f4baa231 ""
  "c:/texlive/2020/texmf-dist/tex/generic/pdftexcmds/pdftexcmds.sty" 1602851513 20089 80423eac55aa175305d35b49e04fe23b ""
  "c:/texlive/2020/texmf-dist/tex/generic/uniquecounter/uniquecounter.sty" 1602852685 7008 f92eaa0a3872ed622bbf538217cd2ab7 ""
  "c:/texlive/2020/texmf-dist/tex/generic/xkeyval/xkeyval.tex" 1602852879 19231 26434a5656c684f5ffb1f26f98006baa ""
  "c:/texlive/2020/texmf-dist/tex/generic/xkeyval/xkvutils.tex" 1602852879 7677 6f5ce7c1124cad7ec57d05b2562bd8fe ""
  "c:/texlive/2020/texmf-dist/tex/latex/amsfonts/amsfonts.sty" 1602849031 5949 3f3fd50a8cc94c3d4cbf4fc66cd3df1c ""
  "c:/texlive/2020/texmf-dist/tex/latex/amsfonts/amssymb.sty" 1602849031 13829 94730e64147574077f8ecfea9bb69af4 ""
  "c:/texlive/2020/texmf-dist/tex/latex/amsfonts/umsa.fd" 1602849031 961 6518c6525a34feb5e8250ffa91731cff ""
  "c:/texlive/2020/texmf-dist/tex/latex/amsfonts/umsb.fd" 1602849031 961 d02606146ba5601b5645f987c92e6193 ""
  "c:/texlive/2020/texmf-dist/tex/latex/amsmath/amsbsy.sty" 1602849034 2211 ca7ce284ab93c8eecdc6029dc5ccbd73 ""
  "c:/texlive/2020/texmf-dist/tex/latex/amsmath/amsgen.sty" 1602849034 4161 7f6eb9092061a11f87d08ed13515b48d ""
  "c:/texlive/2020/texmf-dist/tex/latex/amsmath/amsmath.sty" 1602849034 87353 2c21ff5f2e32e1bf714e600924d810db ""
  "c:/texlive/2020/texmf-dist/tex/latex/amsmath/amsopn.sty" 1602849034 4116 32e6abd27229755a83a8b7f18e583890 ""
  "c:/texlive/2020/texmf-dist/tex/latex/amsmath/amstext.sty" 1602849034 2432 8ff93b1137020e8f21930562a874ae66 ""
  "c:/texlive/2020/texmf-dist/tex/latex/appendix/appendix.sty" 1602849058 8878 d9f65b39ca82f1d70030390eca653b1c ""
  "c:/texlive/2020/texmf-dist/tex/latex/atveryend/atveryend.sty" 1602849124 19336 ce7ae9438967282886b3b036cfad1e4d ""
  "c:/texlive/2020/texmf-dist/tex/latex/auxhook/auxhook.sty" 1602849138 3935 57aa3c3e203a5c2effb4d2bd2efbc323 ""
  "c:/texlive/2020/texmf-dist/tex/latex/base/article.cls" 1602850740 20145 aad8c3dd3bc36e260347b84002182bc2 ""
  "c:/texlive/2020/texmf-dist/tex/latex/base/atbegshi-ltx.sty" 1602850740 2973 526f051f6c1e8ce977317540955a4618 ""
  "c:/texlive/2020/texmf-dist/tex/latex/base/atveryend-ltx.sty" 1602850740 2596 82e294eaa692d6960a8101d426decd97 ""
  "c:/texlive/2020/texmf-dist/tex/latex/base/ifthen.sty" 1602850740 5159 892429808d9e0e2b3548aaefd9a06ed0 ""
  "c:/texlive/2020/texmf-dist/tex/latex/base/inputenc.sty" 1602850740 5050 0d3b77275060ca09a40635b830c3c904 ""
  "c:/texlive/2020/texmf-dist/tex/latex/base/size12.clo" 1602850740 8450 6fd3588c0e9d06f6f56c6cf4f7246466 ""
  "c:/texlive/2020/texmf-dist/tex/latex/biblatex/bbx/authoryear-ibid.bbx" 1602849279 98 62aceff275e313944e1afdfdaa541554 ""
  "c:/texlive/2020/texmf-dist/tex/latex/biblatex/bbx/authoryear.bbx" 1602849279 8024 f170876981d3e1db9ed0abd5abc62dbe ""
  "c:/texlive/2020/texmf-dist/tex/latex/biblatex/bbx/standard.bbx" 1602849279 25668 053b4b79cdf1eb2b5295f7e9a1e44e40 ""
  "c:/texlive/2020/texmf-dist/tex/latex/biblatex/biblatex.cfg" 1602849279 69 249fa6df04d948e51b6d5c67bea30c42 ""
  "c:/texlive/2020/texmf-dist/tex/latex/biblatex/biblatex.def" 1602849279 90799 aa3e8ff4d27165a9cef19969302c7d76 ""
  "c:/texlive/2020/texmf-dist/tex/latex/biblatex/biblatex.sty" 1602849279 498507 c18954bd8c2278d6057f2fd51a7139c2 ""
  "c:/texlive/2020/texmf-dist/tex/latex/biblatex/blx-case-expl3.def" 1602849279 7875 be9cb70fa0b1f93ce492b849e182fd16 ""
  "c:/texlive/2020/texmf-dist/tex/latex/biblatex/blx-compat.def" 1602849279 13243 9e920febc775766efbfc48b726e82969 ""
  "c:/texlive/2020/texmf-dist/tex/latex/biblatex/blx-dm.def" 1602849279 32524 094a4bc9379dea627956b95c654ca62a ""
  "c:/texlive/2020/texmf-dist/tex/latex/biblatex/cbx/authoryear-ibid.cbx" 1602849279 5131 1fc3c57079c2dee74efc95a3c2c41923 ""
  "c:/texlive/2020/texmf-dist/tex/latex/biblatex/lbx/english.lbx" 1602849279 38458 9b162a42b997f9b9ef178ead647ffb19 ""
  "c:/texlive/2020/texmf-dist/tex/latex/blindtext/blindtext.sty" 1602849356 47295 de48b7f8ebf4b54709a2f6b2c7106dd5 ""
  "c:/texlive/2020/texmf-dist/tex/latex/datatool/datatool-base.sty" 1602849769 93620 4e9f9aa754a2337e89df3eeca1527291 ""
  "c:/texlive/2020/texmf-dist/tex/latex/datatool/datatool-fp.sty" 1602849769 3944 92aa06b5428fcc1b751c82409f23f92f ""
  "c:/texlive/2020/texmf-dist/tex/latex/epstopdf-pkg/epstopdf-base.sty" 1602850028 13886 d1306dcf79a944f6988e688c1785f9ce ""
  "c:/texlive/2020/texmf-dist/tex/latex/etoolbox/etoolbox.sty" 1602850065 46845 3b58f70c6e861a13d927bff09d35ecbc ""
  "c:/texlive/2020/texmf-dist/tex/latex/fp/defpattern.sty" 1602850266 1081 6a8d78d0e6b2d89334f92fd122c1da99 ""
  "c:/texlive/2020/texmf-dist/tex/latex/fp/fp-addons.sty" 1602850266 1275 fe903646b72b3e877914d78f2db9ddda ""
  "c:/texlive/2020/texmf-dist/tex/latex/fp/fp-basic.sty" 1602850266 29695 b6366b50463dfb367cf560419d0cea8d ""
  "c:/texlive/2020/texmf-dist/tex/latex/fp/fp-eqn.sty" 1602850266 11336 afed7aa5dbc4bf246950282b95e522c2 ""
  "c:/texlive/2020/texmf-dist/tex/latex/fp/fp-eval.sty" 1602850266 6220 eeeffd00d1235e73c380c6dc9f30ac43 ""
  "c:/texlive/2020/texmf-dist/tex/latex/fp/fp-exp.sty" 1602850266 16965 df20a610ce368cd126fd73d1a4e4fef1 ""
  "c:/texlive/2020/texmf-dist/tex/latex/fp/fp-pas.sty" 1602850266 3006 6fd5da0dc83ba1d19525f1fb08dca7df ""
  "c:/texlive/2020/texmf-dist/tex/latex/fp/fp-random.sty" 1602850266 3702 6e54ac63212901d59e6ea2a32b0a7689 ""
  "c:/texlive/2020/texmf-dist/tex/latex/fp/fp-snap.sty" 1602850266 6519 c1e5d3c6aed32ba782f756d79578d87b ""
  "c:/texlive/2020/texmf-dist/tex/latex/fp/fp-trigo.sty" 1602850266 28969 342a2de338e342de95d2551557e50f06 ""
  "c:/texlive/2020/texmf-dist/tex/latex/fp/fp-upn.sty" 1602850266 7154 78a835a719e27a484e63f1f98ba4df11 ""
  "c:/texlive/2020/texmf-dist/tex/latex/fp/fp.sty" 1602850266 983 d84df22b060ce125f89a32c403dcab31 ""
  "c:/texlive/2020/texmf-dist/tex/latex/glossaries/base/glossaries-compatible-307.sty" 1602850345 17594 da866104da1e2125aa14fffa0e769926 ""
  "c:/texlive/2020/texmf-dist/tex/latex/glossaries/base/glossaries.sty" 1602850345 247649 6555ede92d9224a163ac409bafda7cef ""
  "c:/texlive/2020/texmf-dist/tex/latex/glossaries/styles/glossary-hypernav.sty" 1602850345 4624 e42735a7bf62490cd83a7c9e2a0b7cbb ""
  "c:/texlive/2020/texmf-dist/tex/latex/glossaries/styles/glossary-list.sty" 1602850345 5510 e6b5b5aa522e33636580780d2a054106 ""
  "c:/texlive/2020/texmf-dist/tex/latex/glossaries/styles/glossary-long.sty" 1602850345 7924 df2ffc202f5b39858884a31f4838fa7d ""
  "c:/texlive/2020/texmf-dist/tex/latex/glossaries/styles/glossary-super.sty" 1602850345 8941 f793914f46631f465fa400740fab926a ""
  "c:/texlive/2020/texmf-dist/tex/latex/glossaries/styles/glossary-tree.sty" 1602850345 11406 0f4dd8abcf245ee79a3ca74a87118aa4 ""
  "c:/texlive/2020/texmf-dist/tex/latex/graphics-cfg/color.cfg" 1602850392 1213 620bba36b25224fa9b7e1ccb4ecb76fd ""
  "c:/texlive/2020/texmf-dist/tex/latex/graphics-cfg/graphics.cfg" 1602850392 1224 978390e9c2234eab29404bc21b268d1e ""
  "c:/texlive/2020/texmf-dist/tex/latex/graphics-def/pdftex.def" 1602850392 19103 48d29b6e2a64cb717117ef65f107b404 ""
  "c:/texlive/2020/texmf-dist/tex/latex/graphics/graphics.sty" 1602850390 18272 a8c6a275b34ab6717ceeb8fa04b104e2 ""
  "c:/texlive/2020/texmf-dist/tex/latex/graphics/graphicx.sty" 1602850390 7919 20fdfdd783821971c55bc8ee918cbe63 ""
  "c:/texlive/2020/texmf-dist/tex/latex/graphics/keyval.sty" 1602850390 2590 e3b24ff953e5b58d924f163d25380312 ""
  "c:/texlive/2020/texmf-dist/tex/latex/graphics/trig.sty" 1602850390 3976 d7fa7d81d2870d509d25b17d0245e735 ""
  "c:/texlive/2020/texmf-dist/tex/latex/hycolor/hycolor.sty" 1602850502 17914 4c28a13fc3d975e6e81c9bea1d697276 ""
  "c:/texlive/2020/texmf-dist/tex/latex/hyperref/hpdftex.def" 1602850506 50570 2e81797743231d9037b0cbe3436d74ba ""
  "c:/texlive/2020/texmf-dist/tex/latex/hyperref/hyperref.sty" 1602850507 236775 8ab18a05f69e6caef423fa59cb0af03b ""
  "c:/texlive/2020/texmf-dist/tex/latex/hyperref/nameref.sty" 1602850507 13244 0070bcab7b5a88187847128d22faf4d8 ""
  "c:/texlive/2020/texmf-dist/tex/latex/hyperref/pd1enc.def" 1602850507 14134 c11767c54bd7ecab56984ee4e4e3158c ""
  "c:/texlive/2020/texmf-dist/tex/latex/import/import.sty" 1602850564 6201 0ad8b5da8e12f60a88d546b2198a56f2 ""
  "c:/texlive/2020/texmf-dist/tex/latex/kvoptions/kvoptions.sty" 1602850711 22521 d2fceb764a442a2001d257ef11db7618 ""
  "c:/texlive/2020/texmf-dist/tex/latex/l3backend/l3backend-pdftex.def" 1602850718 23704 02c466ff883953a445c97e55638005fc ""
  "c:/texlive/2020/texmf-dist/tex/latex/l3kernel/expl3.sty" 1602850722 6209 be8e0b9a6f41672aeec5b3f295b68caa ""
  "c:/texlive/2020/texmf-dist/tex/latex/l3packages/xparse/xparse-generic.tex" 1602850725 80141 edbf9289c99ff37db17116af7a3a423f ""
  "c:/texlive/2020/texmf-dist/tex/latex/l3packages/xparse/xparse.sty" 1602850725 5907 05eba123b9c91616c4bde0a91667dbee ""
  "c:/texlive/2020/texmf-dist/tex/latex/latexconfig/epstopdf-sys.cfg" 1602850791 678 4792914a8f45be57bb98413425e4c7af ""
  "c:/texlive/2020/texmf-dist/tex/latex/letltxmacro/letltxmacro.sty" 1602850827 5766 13a9e8766c47f30327caf893ece86ac8 ""
  "c:/texlive/2020/texmf-dist/tex/latex/listings/listings.cfg" 1602850878 1830 e31effa752c61538383451ae21332364 ""
  "c:/texlive/2020/texmf-dist/tex/latex/listings/listings.sty" 1602850878 80964 64e57373f36316e4a09b517cbf1aba2e ""
  "c:/texlive/2020/texmf-dist/tex/latex/listings/lstlang1.sty" 1602850878 204271 bae5b2d457283e99567249c1990510be ""
  "c:/texlive/2020/texmf-dist/tex/latex/listings/lstmisc.sty" 1602850878 77022 ee25ce086f4a79d8cf73bac6f94c02a5 ""
  "c:/texlive/2020/texmf-dist/tex/latex/logreq/logreq.def" 1602850905 1620 fb1c32b818f2058eca187e5c41dfae77 ""
  "c:/texlive/2020/texmf-dist/tex/latex/logreq/logreq.sty" 1602850905 6187 b27afc771af565d3a9ff1ca7d16d0d46 ""
  "c:/texlive/2020/texmf-dist/tex/latex/mfirstuc/mfirstuc.sty" 1602851107 12293 1ffb9177486ec6129ddddbf1de7b2220 ""
  "c:/texlive/2020/texmf-dist/tex/latex/ms/everysel.sty" 1602851229 4623 936bfb87af7b91b6496a2317f80db16b ""
  "c:/texlive/2020/texmf-dist/tex/latex/ragged2e/ragged2e.sty" 1602851905 9974 f2895af67a8ceb11ae60d6efbed7dc62 ""
  "c:/texlive/2020/texmf-dist/tex/latex/refcount/refcount.sty" 1602851929 9878 9e94e8fa600d95f9c7731bb21dfb67a4 ""
  "c:/texlive/2020/texmf-dist/tex/latex/rerunfilecheck/rerunfilecheck.sty" 1602851947 9715 b051d5b493d9fe5f4bc251462d039e5f ""
  "c:/texlive/2020/texmf-dist/tex/latex/setspace/setspace.sty" 1602852074 22913 a27d7908fc6f0385466454a966a316eb ""
  "c:/texlive/2020/texmf-dist/tex/latex/substr/substr.sty" 1602852230 5724 d3505925e87b345f11a5f17d58550dea ""
  "c:/texlive/2020/texmf-dist/tex/latex/supertabular/supertabular.sty" 1602852237 15405 31e477e611bb77761a134e5593e8119d ""
  "c:/texlive/2020/texmf-dist/tex/latex/textcase/textcase.sty" 1602852387 2156 a092fd3ecd0a13fd597725ee6894b032 ""
  "c:/texlive/2020/texmf-dist/tex/latex/titlesec/titlesec.sty" 1602852500 48596 2b6a95da931c07a430b1a61904aaa42d ""
  "c:/texlive/2020/texmf-dist/tex/latex/tocloft/tocloft.sty" 1602852543 36103 3e78d14f0f4b1a30560fea5e04de805d ""
  "c:/texlive/2020/texmf-dist/tex/latex/tools/longtable.sty" 1602852551 12133 b1e3e65b69714dbfcc5e6c0b19d66b50 ""
  "c:/texlive/2020/texmf-dist/tex/latex/tools/xspace.sty" 1602852551 4546 3e6071704acf4f66392376b7b66ae02c ""
  "c:/texlive/2020/texmf-dist/tex/latex/url/url.sty" 1602852714 12796 8edb7d69a20b857904dd0ea757c14ec9 ""
  "c:/texlive/2020/texmf-dist/tex/latex/xcolor/xcolor.sty" 1602852831 55589 34128738f682d033422ca125f82e5d62 ""
  "c:/texlive/2020/texmf-dist/tex/latex/xfor/xfor.sty" 1602852866 2689 44855b72da58344b1c1d9b3087bce6ca ""
  "c:/texlive/2020/texmf-dist/tex/latex/xkeyval/xkeyval.sty" 1602852879 4962 9c1069474ff71dbc47d5006555e352d3 ""
  "c:/texlive/2020/texmf-dist/web2c/texmf.cnf" 1602850697 39451 15a3ebee027466ecb89701aa91dfebaf ""
  "c:/texlive/2020/texmf-var/fonts/map/pdftex/updmap/pdftex.map" 1602853004 5062869 95ba2e467a821e59abd9572a799f039c ""
  "c:/texlive/2020/texmf-var/web2c/pdftex/pdflatex.fmt" 1602853214 2535467 344b2412bddd94a50e24b1271fb87dc7 ""
  "c:/texlive/2020/texmf.cnf" 1602852958 673 88525a9fadd7b2e5355c77877d06057d ""
  "code/HelloWorld.java" 1626359679 188 43eadd94c63140a4e85fab2042f2af7e ""
  "d:/Git Projects/latex-examples/5_full-example/main.aux" 1626367795 6429 6d0eaee7d64b797f080792f4b00b0b2a "pdflatex"
  "d:/Git Projects/latex-examples/5_full-example/main.tex" 1626367791 1004 b360fb58e112f0634c330a462f2d2024 ""
  "images//polarbear.jpg" 1626358993 553734 6aac76ca5c65dbc47d2afda941bad7e8 ""
  "main.aux" 1626367795 6429 6d0eaee7d64b797f080792f4b00b0b2a "pdflatex"
  "main.bbl" 1626367252 3244 28101f2d6edae2ff478ba6d291469d09 "biber main"
  "main.equ" 1626367795 454 77ff16db47d8a4e5aa09913af9fa36cf "pdflatex"
  "main.lof" 1626367795 226 6bbcbf819bf65318df793007b793cfee "pdflatex"
  "main.lol" 1626367795 275 8725b744dec850a7b67ddf746b0b00ae "pdflatex"
  "main.lot" 1626367795 359 4b9a0d9e4a410d5be8c9279e965b9d1c "pdflatex"
  "main.out" 1626367795 798 8c4f564b97631c94f21b78a5768af3c0 "pdflatex"
  "main.run.xml" 1626367795 2389 5727e1de67157c06879d50a6d3320b96 "pdflatex"
  "main.tex" 1626367791 1004 b360fb58e112f0634c330a462f2d2024 ""
  "main.toc" 1626367795 1694 c1b6e2ee2935c0505b14ad6bbeb61a0f "pdflatex"
  "sections/appendix.tex" 1626362624 3623 6e6ee2a06754d4f12fb082c87d4ada5f ""
  "sections/citing.tex" 1626361458 126 c1aa7b0ed29b970e9b69de7f8aeeac63 ""
  "sections/figures.tex" 1626361376 199 cd1d7f72fb19c9a8c3928907ddb6f0f0 ""
  "sections/listings.tex" 1626361693 1164 1bfe0ceb72015f71b9523e4f58292638 ""
  "sections/math.tex" 1626365592 937 922801e1e1db3f12158e70abbd0fc6f6 ""
  "sections/tables.tex" 1626361586 1319 fd8fb8f3889fbd73f628cc7cda62dd49 ""
  "sections/toc.tex" 1626367770 438 d0c25358952334b0505b26ab648f0791 ""
  "styling.sty" 1626367233 3731 af65a087a826b222b82f1481599e29e2 ""
  (generated)
  "d:/Git Projects/latex-examples/5_full-example/main.log"
  "main.run.xml"
  "main.out"
  "d:/Git Projects/latex-examples/5_full-example/main.aux"
  "main.pdf"
  "main.log"
  "main.toc"
  "main.lot"
  "main.lof"
  "d:/Git Projects/latex-examples/5_full-example/main.pdf"
  "main.bcf"
  "main.aux"
  "main.lol"
  "main.equ"
