\relax 
\providecommand\hyper@newdestlabel[2]{}
\providecommand\HyperFirstAtBeginDocument{\AtBeginDocument}
\HyperFirstAtBeginDocument{\ifx\hyper@anchor\@undefined
\global\let\oldcontentsline\contentsline
\gdef\contentsline#1#2#3#4{\oldcontentsline{#1}{#2}{#3}}
\global\let\oldnewlabel\newlabel
\gdef\newlabel#1#2{\newlabelxx{#1}#2}
\gdef\newlabelxx#1#2#3#4#5#6{\oldnewlabel{#1}{{#2}{#3}}}
\AtEndDocument{\ifx\hyper@anchor\@undefined
\let\contentsline\oldcontentsline
\let\newlabel\oldnewlabel
\fi}
\fi}
\global\let\hyper@last\relax 
\gdef\HyperFirstAtBeginDocument#1{#1}
\providecommand\HyField@AuxAddToFields[1]{}
\providecommand\HyField@AuxAddToCoFields[2]{}
\@writefile{toc}{\boolfalse {citerequest}\boolfalse {citetracker}\boolfalse {pagetracker}\boolfalse {backtracker}\relax }
\@writefile{lof}{\boolfalse {citerequest}\boolfalse {citetracker}\boolfalse {pagetracker}\boolfalse {backtracker}\relax }
\@writefile{lot}{\boolfalse {citerequest}\boolfalse {citetracker}\boolfalse {pagetracker}\boolfalse {backtracker}\relax }
\abx@aux@refcontext{nyt/global//global/global}
\providecommand\@newglossary[4]{}
\@newglossary{main}{glg}{gls}{glo}
\@writefile{lol}{\defcounter {refsection}{0}\relax }\@writefile{lol}{\addvspace {10\p@ }}
\@writefile{myequations}{\defcounter {refsection}{0}\relax }\@writefile{myequations}{\addvspace {10\p@ }}
\@writefile{toc}{\defcounter {refsection}{0}\relax }\@writefile{toc}{\contentsline {section}{List of Tables}{iii}{section*.1}\protected@file@percent }
\@writefile{toc}{\defcounter {refsection}{0}\relax }\@writefile{toc}{\contentsline {section}{List of Figures}{iv}{section*.2}\protected@file@percent }
\@writefile{toc}{\defcounter {refsection}{0}\relax }\@writefile{toc}{\contentsline {section}{List of Listings}{v}{section*.3}\protected@file@percent }
\@writefile{toc}{\defcounter {refsection}{0}\relax }\@writefile{toc}{\contentsline {section}{List of Equations}{vi}{section*.4}\protected@file@percent }
\@writefile{toc}{\defcounter {refsection}{0}\relax }\@writefile{toc}{\contentsline {section}{\numberline {1}Tables}{1}{section.1}\protected@file@percent }
\@writefile{lot}{\defcounter {refsection}{0}\relax }\@writefile{lot}{\contentsline {table}{\numberline {1}{\ignorespaces Example of basic table}}{1}{table.1}\protected@file@percent }
\newlabel{table1}{{1}{1}{Example of basic table}{table.1}{}}
\@writefile{toc}{\defcounter {refsection}{0}\relax }\@writefile{toc}{\contentsline {subsection}{\numberline {1.1}Another Table}{1}{subsection.1.1}\protected@file@percent }
\@writefile{lot}{\defcounter {refsection}{0}\relax }\@writefile{lot}{\contentsline {table}{\numberline {2}{\ignorespaces Slightly more complex table}}{1}{table.2}\protected@file@percent }
\newlabel{countries}{{2}{1}{Slightly more complex table}{table.2}{}}
\@writefile{toc}{\defcounter {refsection}{0}\relax }\@writefile{toc}{\contentsline {section}{\numberline {2}Figures}{2}{section.2}\protected@file@percent }
\@writefile{lof}{\defcounter {refsection}{0}\relax }\@writefile{lof}{\contentsline {figure}{\numberline {1}{\ignorespaces A baby polar bear}}{2}{figure.1}\protected@file@percent }
\newlabel{polarbear}{{1}{2}{A baby polar bear}{figure.1}{}}
\@writefile{toc}{\defcounter {refsection}{0}\relax }\@writefile{toc}{\contentsline {section}{\numberline {3}Code Snippets}{3}{section.3}\protected@file@percent }
\newlabel{py1}{{1}{3}{Python code!}{lstlisting.1}{}}
\@writefile{lol}{\defcounter {refsection}{0}\relax }\@writefile{lol}{\contentsline {lstlisting}{\numberline {1}Python code!}{3}{lstlisting.1}\protected@file@percent }
\@writefile{lol}{\defcounter {refsection}{0}\relax }\@writefile{lol}{\contentsline {lstlisting}{\numberline {2}Java from file}{3}{lstlisting.2}\protected@file@percent }
\abx@aux@cite{einstein}
\abx@aux@segm{0}{0}{einstein}
\abx@aux@cite{dirac}
\abx@aux@segm{0}{0}{dirac}
\@writefile{toc}{\defcounter {refsection}{0}\relax }\@writefile{toc}{\contentsline {section}{\numberline {4}Citing}{4}{section.4}\protected@file@percent }
\abx@aux@page{1}{4}
\abx@aux@page{2}{4}
\@writefile{toc}{\defcounter {refsection}{0}\relax }\@writefile{toc}{\contentsline {section}{\numberline {5}Maths}{5}{section.5}\protected@file@percent }
\@writefile{toc}{\defcounter {refsection}{0}\relax }\@writefile{toc}{\contentsline {subsection}{\numberline {5.1}Basic}{5}{subsection.5.1}\protected@file@percent }
\newlabel{Pythagorean theorem}{{1}{5}{Basic}{equation.5.1}{}}
\@writefile{equ}{\defcounter {refsection}{0}\relax }\@writefile{equ}{\contentsline {myequations}{\numberline {1}Pythagorean theorem}{5}{equation.5.1}\protected@file@percent }
\@writefile{toc}{\defcounter {refsection}{0}\relax }\@writefile{toc}{\contentsline {subsection}{\numberline {5.2}Advanced}{5}{subsection.5.2}\protected@file@percent }
\newlabel{Some Equation}{{2}{5}{Advanced}{equation.5.2}{}}
\@writefile{equ}{\defcounter {refsection}{0}\relax }\@writefile{equ}{\contentsline {myequations}{\numberline {2}Some Equation}{5}{equation.5.2}\protected@file@percent }
\newlabel{Scary Fraction}{{3}{5}{Advanced}{equation.5.3}{}}
\@writefile{equ}{\defcounter {refsection}{0}\relax }\@writefile{equ}{\contentsline {myequations}{\numberline {3}Scary Fraction}{5}{equation.5.3}\protected@file@percent }
\newlabel{Massive Equation}{{4}{5}{Advanced}{equation.5.4}{}}
\@writefile{equ}{\defcounter {refsection}{0}\relax }\@writefile{equ}{\contentsline {myequations}{\numberline {4}Massive Equation}{5}{equation.5.4}\protected@file@percent }
\@writefile{toc}{\defcounter {refsection}{0}\relax }\@writefile{toc}{\contentsline {section}{References}{6}{equation.5.4}\protected@file@percent }
\abx@aux@page{3}{6}
\abx@aux@page{4}{6}
\@writefile{toc}{\defcounter {refsection}{0}\relax }\@writefile{toc}{\contentsline {section}{Appendices}{I}{section*.5}\protected@file@percent }
\@writefile{toc}{\defcounter {refsection}{0}\relax }\@writefile{toc}{\contentsline {section}{\numberline {A}Abelian Sandpiles}{I}{appendix.A}\protected@file@percent }
\newlabel{appendix:sandpiles}{{A}{I}{Abelian Sandpiles}{appendix.A}{}}
\abx@aux@refcontextdefaultsdone
\abx@aux@defaultrefcontext{0}{dirac}{nyt/global//global/global}
\abx@aux@defaultrefcontext{0}{einstein}{nyt/global//global/global}
\@writefile{toc}{\defcounter {refsection}{0}\relax }\@writefile{toc}{\contentsline {section}{\numberline {B}Identity Sandpile}{II}{appendix.B}\protected@file@percent }
\newlabel{appendix:identity}{{B}{II}{Identity Sandpile}{appendix.B}{}}
\gdef \@abspage@last{14}
