# Fdb version 3
["pdflatex"] 1626364403 "d:/Git Projects/latex-examples/2_tables-and-others/tables-and-others.tex" "d:/Git Projects/latex-examples/2_tables-and-others/tables-and-others.pdf" "tables-and-others" 1626364405
  "c:/texlive/2020/texmf-dist/fonts/enc/dvips/cm-super/cm-super-ts1.enc" 1602849561 2900 1537cc8184ad1792082cd229ecc269f4 ""
  "c:/texlive/2020/texmf-dist/fonts/map/fontname/texfonts.map" 1602850234 3524 cb3e574dea2d1052e39280babc910dc8 ""
  "c:/texlive/2020/texmf-dist/fonts/tfm/jknappen/ec/tcrm0700.tfm" 1602849938 1536 73da8e8f1d2a4c957d51ca133585586b ""
  "c:/texlive/2020/texmf-dist/fonts/tfm/jknappen/ec/tcrm1000.tfm" 1602849938 1536 e07581a4bb3136ece9eeb4c3ffab8233 ""
  "c:/texlive/2020/texmf-dist/fonts/tfm/public/cm/cmbx10.tfm" 1602849546 1328 c834bbb027764024c09d3d2bf908b5f0 ""
  "c:/texlive/2020/texmf-dist/fonts/tfm/public/cm/cmbx12.tfm" 1602849546 1324 c910af8c371558dc20f2d7822f66fe64 ""
  "c:/texlive/2020/texmf-dist/fonts/tfm/public/cm/cmmi12.tfm" 1602849546 1524 4414a8315f39513458b80dfc63bff03a ""
  "c:/texlive/2020/texmf-dist/fonts/tfm/public/cm/cmmi6.tfm" 1602849546 1512 f21f83efb36853c0b70002322c1ab3ad ""
  "c:/texlive/2020/texmf-dist/fonts/tfm/public/cm/cmmi8.tfm" 1602849546 1520 eccf95517727cb11801f4f1aee3a21b4 ""
  "c:/texlive/2020/texmf-dist/fonts/tfm/public/cm/cmr10.tfm" 1602849546 1296 45809c5a464d5f32c8f98ba97c1bb47f ""
  "c:/texlive/2020/texmf-dist/fonts/tfm/public/cm/cmr12.tfm" 1602849546 1288 655e228510b4c2a1abe905c368440826 ""
  "c:/texlive/2020/texmf-dist/fonts/tfm/public/cm/cmr17.tfm" 1602849546 1292 296a67155bdbfc32aa9c636f21e91433 ""
  "c:/texlive/2020/texmf-dist/fonts/tfm/public/cm/cmr6.tfm" 1602849546 1300 b62933e007d01cfd073f79b963c01526 ""
  "c:/texlive/2020/texmf-dist/fonts/tfm/public/cm/cmr8.tfm" 1602849546 1292 21c1c5bfeaebccffdb478fd231a0997d ""
  "c:/texlive/2020/texmf-dist/fonts/tfm/public/cm/cmsy10.tfm" 1602849546 1124 6c73e740cf17375f03eec0ee63599741 ""
  "c:/texlive/2020/texmf-dist/fonts/tfm/public/cm/cmsy6.tfm" 1602849546 1116 933a60c408fc0a863a92debe84b2d294 ""
  "c:/texlive/2020/texmf-dist/fonts/tfm/public/cm/cmsy8.tfm" 1602849546 1120 8b7d695260f3cff42e636090a8002094 ""
  "c:/texlive/2020/texmf-dist/fonts/type1/public/amsfonts/cm/cmbx10.pfb" 1602849030 34811 78b52f49e893bcba91bd7581cdc144c0 ""
  "c:/texlive/2020/texmf-dist/fonts/type1/public/amsfonts/cm/cmbx12.pfb" 1602849030 32080 340ef9bf63678554ee606688e7b5339d ""
  "c:/texlive/2020/texmf-dist/fonts/type1/public/amsfonts/cm/cmr10.pfb" 1602849031 35752 024fb6c41858982481f6968b5fc26508 ""
  "c:/texlive/2020/texmf-dist/fonts/type1/public/amsfonts/cm/cmr12.pfb" 1602849031 32722 d7379af29a190c3f453aba36302ff5a9 ""
  "c:/texlive/2020/texmf-dist/fonts/type1/public/amsfonts/cm/cmr17.pfb" 1602849031 32362 179c33bbf43f19adbb3825bb4e36e57a ""
  "c:/texlive/2020/texmf-dist/fonts/type1/public/cm-super/sfrm0700.pfb" 1602849561 154599 ded6d7c21788a8930eadc7fef7518942 ""
  "c:/texlive/2020/texmf-dist/fonts/type1/public/cm-super/sfrm1000.pfb" 1602849561 138258 6525c253f16cededa14c7fd0da7f67b2 ""
  "c:/texlive/2020/texmf-dist/tex/context/base/mkii/supp-pdf.mkii" 1602851226 71627 94eb9990bed73c364d7f53f960cc8c5b ""
  "c:/texlive/2020/texmf-dist/tex/generic/atbegshi/atbegshi.sty" 1602849120 24708 5584a51a7101caf7e6bbf1fc27d8f7b1 ""
  "c:/texlive/2020/texmf-dist/tex/generic/bigintcalc/bigintcalc.sty" 1602849347 40635 c40361e206be584d448876bba8a64a3b ""
  "c:/texlive/2020/texmf-dist/tex/generic/bitset/bitset.sty" 1602849353 33961 6b5c75130e435b2bfdb9f480a09a39f9 ""
  "c:/texlive/2020/texmf-dist/tex/generic/etexcmds/etexcmds.sty" 1602850058 7734 b98cbb34c81f667027c1e3ebdbfce34b ""
  "c:/texlive/2020/texmf-dist/tex/generic/gettitlestring/gettitlestring.sty" 1602850322 8371 9d55b8bd010bc717624922fb3477d92e ""
  "c:/texlive/2020/texmf-dist/tex/generic/iftex/iftex.sty" 1602850552 6501 4011d89d9621e0b0901138815ba5ff29 ""
  "c:/texlive/2020/texmf-dist/tex/generic/infwarerr/infwarerr.sty" 1602850571 8356 7bbb2c2373aa810be568c29e333da8ed ""
  "c:/texlive/2020/texmf-dist/tex/generic/intcalc/intcalc.sty" 1602850582 31769 002a487f55041f8e805cfbf6385ffd97 ""
  "c:/texlive/2020/texmf-dist/tex/generic/kvdefinekeys/kvdefinekeys.sty" 1602850709 5412 d5a2436094cd7be85769db90f29250a6 ""
  "c:/texlive/2020/texmf-dist/tex/generic/kvsetkeys/kvsetkeys.sty" 1602850713 13807 952b0226d4efca026f0e19dd266dcc22 ""
  "c:/texlive/2020/texmf-dist/tex/generic/ltxcmds/ltxcmds.sty" 1602850946 17859 4409f8f50cd365c68e684407e5350b1b ""
  "c:/texlive/2020/texmf-dist/tex/generic/pdfescape/pdfescape.sty" 1602851497 19007 15924f7228aca6c6d184b115f4baa231 ""
  "c:/texlive/2020/texmf-dist/tex/generic/pdftexcmds/pdftexcmds.sty" 1602851513 20089 80423eac55aa175305d35b49e04fe23b ""
  "c:/texlive/2020/texmf-dist/tex/generic/uniquecounter/uniquecounter.sty" 1602852685 7008 f92eaa0a3872ed622bbf538217cd2ab7 ""
  "c:/texlive/2020/texmf-dist/tex/latex/atveryend/atveryend.sty" 1602849124 19336 ce7ae9438967282886b3b036cfad1e4d ""
  "c:/texlive/2020/texmf-dist/tex/latex/auxhook/auxhook.sty" 1602849138 3935 57aa3c3e203a5c2effb4d2bd2efbc323 ""
  "c:/texlive/2020/texmf-dist/tex/latex/base/article.cls" 1602850740 20145 aad8c3dd3bc36e260347b84002182bc2 ""
  "c:/texlive/2020/texmf-dist/tex/latex/base/atbegshi-ltx.sty" 1602850740 2973 526f051f6c1e8ce977317540955a4618 ""
  "c:/texlive/2020/texmf-dist/tex/latex/base/atveryend-ltx.sty" 1602850740 2596 82e294eaa692d6960a8101d426decd97 ""
  "c:/texlive/2020/texmf-dist/tex/latex/base/inputenc.sty" 1602850740 5050 0d3b77275060ca09a40635b830c3c904 ""
  "c:/texlive/2020/texmf-dist/tex/latex/base/size12.clo" 1602850740 8450 6fd3588c0e9d06f6f56c6cf4f7246466 ""
  "c:/texlive/2020/texmf-dist/tex/latex/blindtext/blindtext.sty" 1602849356 47295 de48b7f8ebf4b54709a2f6b2c7106dd5 ""
  "c:/texlive/2020/texmf-dist/tex/latex/epstopdf-pkg/epstopdf-base.sty" 1602850028 13886 d1306dcf79a944f6988e688c1785f9ce ""
  "c:/texlive/2020/texmf-dist/tex/latex/graphics-cfg/color.cfg" 1602850392 1213 620bba36b25224fa9b7e1ccb4ecb76fd ""
  "c:/texlive/2020/texmf-dist/tex/latex/graphics-cfg/graphics.cfg" 1602850392 1224 978390e9c2234eab29404bc21b268d1e ""
  "c:/texlive/2020/texmf-dist/tex/latex/graphics-def/pdftex.def" 1602850392 19103 48d29b6e2a64cb717117ef65f107b404 ""
  "c:/texlive/2020/texmf-dist/tex/latex/graphics/color.sty" 1602850390 7102 5b27b7e61091c6128cd6300e21704e4b ""
  "c:/texlive/2020/texmf-dist/tex/latex/graphics/graphics.sty" 1602850390 18272 a8c6a275b34ab6717ceeb8fa04b104e2 ""
  "c:/texlive/2020/texmf-dist/tex/latex/graphics/graphicx.sty" 1602850390 7919 20fdfdd783821971c55bc8ee918cbe63 ""
  "c:/texlive/2020/texmf-dist/tex/latex/graphics/keyval.sty" 1602850390 2590 e3b24ff953e5b58d924f163d25380312 ""
  "c:/texlive/2020/texmf-dist/tex/latex/graphics/trig.sty" 1602850390 3976 d7fa7d81d2870d509d25b17d0245e735 ""
  "c:/texlive/2020/texmf-dist/tex/latex/hycolor/hycolor.sty" 1602850502 17914 4c28a13fc3d975e6e81c9bea1d697276 ""
  "c:/texlive/2020/texmf-dist/tex/latex/hyperref/hpdftex.def" 1602850506 50570 2e81797743231d9037b0cbe3436d74ba ""
  "c:/texlive/2020/texmf-dist/tex/latex/hyperref/hyperref.sty" 1602850507 236775 8ab18a05f69e6caef423fa59cb0af03b ""
  "c:/texlive/2020/texmf-dist/tex/latex/hyperref/nameref.sty" 1602850507 13244 0070bcab7b5a88187847128d22faf4d8 ""
  "c:/texlive/2020/texmf-dist/tex/latex/hyperref/pd1enc.def" 1602850507 14134 c11767c54bd7ecab56984ee4e4e3158c ""
  "c:/texlive/2020/texmf-dist/tex/latex/kvoptions/kvoptions.sty" 1602850711 22521 d2fceb764a442a2001d257ef11db7618 ""
  "c:/texlive/2020/texmf-dist/tex/latex/l3backend/l3backend-pdftex.def" 1602850718 23704 02c466ff883953a445c97e55638005fc ""
  "c:/texlive/2020/texmf-dist/tex/latex/latexconfig/epstopdf-sys.cfg" 1602850791 678 4792914a8f45be57bb98413425e4c7af ""
  "c:/texlive/2020/texmf-dist/tex/latex/letltxmacro/letltxmacro.sty" 1602850827 5766 13a9e8766c47f30327caf893ece86ac8 ""
  "c:/texlive/2020/texmf-dist/tex/latex/refcount/refcount.sty" 1602851929 9878 9e94e8fa600d95f9c7731bb21dfb67a4 ""
  "c:/texlive/2020/texmf-dist/tex/latex/rerunfilecheck/rerunfilecheck.sty" 1602851947 9715 b051d5b493d9fe5f4bc251462d039e5f ""
  "c:/texlive/2020/texmf-dist/tex/latex/tools/xspace.sty" 1602852551 4546 3e6071704acf4f66392376b7b66ae02c ""
  "c:/texlive/2020/texmf-dist/tex/latex/url/url.sty" 1602852714 12796 8edb7d69a20b857904dd0ea757c14ec9 ""
  "c:/texlive/2020/texmf-dist/web2c/texmf.cnf" 1602850697 39451 15a3ebee027466ecb89701aa91dfebaf ""
  "c:/texlive/2020/texmf-var/fonts/map/pdftex/updmap/pdftex.map" 1602853004 5062869 95ba2e467a821e59abd9572a799f039c ""
  "c:/texlive/2020/texmf-var/web2c/pdftex/pdflatex.fmt" 1602853214 2535467 344b2412bddd94a50e24b1271fb87dc7 ""
  "c:/texlive/2020/texmf.cnf" 1602852958 673 88525a9fadd7b2e5355c77877d06057d ""
  "d:/Git Projects/latex-examples/2_tables-and-others/tables-and-others.aux" 1626364405 1478 42c282c4e1685e73d68097c1e270f5ef "pdflatex"
  "d:/Git Projects/latex-examples/2_tables-and-others/tables-and-others.tex" 1626364402 2124 e2f0bae905d47335dd2b0a2e8f55579d ""
  "images//polarbear.jpg" 1626358993 553734 6aac76ca5c65dbc47d2afda941bad7e8 ""
  "tables-and-others.aux" 1626364405 1478 42c282c4e1685e73d68097c1e270f5ef "pdflatex"
  "tables-and-others.lof" 1626364405 87 54c76ff0ec04be1bea18d78faf3f9d7e "pdflatex"
  "tables-and-others.lot" 1626364405 185 a686eb43fbe59fb14ee590717fa93df6 "pdflatex"
  "tables-and-others.out" 1626364405 83 9386cae3db12251fb2e2176f5b1aded7 "pdflatex"
  "tables-and-others.tex" 1626364402 2124 e2f0bae905d47335dd2b0a2e8f55579d ""
  "tables-and-others.toc" 1626364405 125 f8221d7f3abcbbdf96f2fa315b880ada "pdflatex"
  (generated)
  "tables-and-others.pdf"
  "tables-and-others.toc"
  "tables-and-others.lot"
  "d:/Git Projects/latex-examples/2_tables-and-others/tables-and-others.pdf"
  "tables-and-others.out"
  "tables-and-others.lof"
  "d:/Git Projects/latex-examples/2_tables-and-others/tables-and-others.aux"
  "tables-and-others.log"
  "d:/Git Projects/latex-examples/2_tables-and-others/tables-and-others.log"
  "tables-and-others.aux"
