\relax 
\providecommand\hyper@newdestlabel[2]{}
\providecommand\HyperFirstAtBeginDocument{\AtBeginDocument}
\HyperFirstAtBeginDocument{\ifx\hyper@anchor\@undefined
\global\let\oldcontentsline\contentsline
\gdef\contentsline#1#2#3#4{\oldcontentsline{#1}{#2}{#3}}
\global\let\oldnewlabel\newlabel
\gdef\newlabel#1#2{\newlabelxx{#1}#2}
\gdef\newlabelxx#1#2#3#4#5#6{\oldnewlabel{#1}{{#2}{#3}}}
\AtEndDocument{\ifx\hyper@anchor\@undefined
\let\contentsline\oldcontentsline
\let\newlabel\oldnewlabel
\fi}
\fi}
\global\let\hyper@last\relax 
\gdef\HyperFirstAtBeginDocument#1{#1}
\providecommand\HyField@AuxAddToFields[1]{}
\providecommand\HyField@AuxAddToCoFields[2]{}
\@writefile{toc}{\contentsline {section}{\numberline {1}Tables}{3}{section.1}\protected@file@percent }
\@writefile{lot}{\contentsline {table}{\numberline {1}{\ignorespaces Example of basic table}}{3}{table.1}\protected@file@percent }
\newlabel{table1}{{1}{3}{Example of basic table}{table.1}{}}
\@writefile{lot}{\contentsline {table}{\numberline {2}{\ignorespaces Slightly more complex table}}{3}{table.2}\protected@file@percent }
\newlabel{countries}{{2}{3}{Slightly more complex table}{table.2}{}}
\@writefile{toc}{\contentsline {section}{\numberline {2}Figures}{4}{section.2}\protected@file@percent }
\@writefile{lof}{\contentsline {figure}{\numberline {1}{\ignorespaces A baby polar bear}}{4}{figure.1}\protected@file@percent }
\newlabel{polarbear}{{1}{4}{A baby polar bear}{figure.1}{}}
\gdef \@abspage@last{4}
